Place,Name,Sex,BirthDate,Age,Equipment,Division,BodyweightKg,WeightClassKg,Squat1Kg,Squat2Kg,Squat3Kg,Best3SquatKg,Bench1Kg,Bench2Kg,Bench3Kg,Bench4Kg,Best3BenchKg,Deadlift1Kg,Deadlift2Kg,Deadlift3Kg,Best3DeadliftKg,TotalKg,Event
1,Dina McCulloch,F,1980-06-11,41,Raw,F-M1R-A,62,67.5,75,-82.5,-82.5,75,-52.5,52.5,-55,,52.5,87.5,95,100,100,227.5,SBD
1,Karen Henning,F,1961-12-19,60,Raw,F-M5R-A,65.5,67.5,62.5,67.5,72.5,72.5,37.5,-42.5,-42.5,,37.5,92.5,100,105,105,215,SBD
1,Tina Lamarsh,F,1972-02-24,50,Raw,F-OR,102,110,115,125,137.5,137.5,57.5,65,-70,,65,110,120,132.5,132.5,335,SBD
1,Pea Morris,F,1987-07-20,34,Raw,F-OR-A,65.5,67.5,115,120,122.5,122.5,65,-72.5,-72.5,,65,135,145,152.5,152.5,340,SBD
2,Kaleigh Giesbrecht,F,1991-11-30,30,Raw,F-OR-A,65.5,67.5,72.5,80,-85,80,-57.5,57.5,62.5,,62.5,107.5,115,122.5,122.5,265,SBD
1,Alex Funk,F,1991-08-29,30,Raw,F-OR-A,77,82.5,102.5,110,117.5,117.5,67.5,-70,70,,70,127.5,137.5,145,145,332.5,SBD
2,Monica Sandhu,F,1990-04-24,32,Raw,F-OR-A,80,82.5,90,97.5,-102.5,97.5,55,-60,-60,,55,102.5,110,117.5,117.5,270,SBD
1,April Baldassarre,F,1987-01-09,35,Raw,F-OR-A,88.5,90,135,137.5,140,140,75,77.5,80,,80,135,137.5,145,145,365,SBD
1,Miranda Chrisp,F,1988-02-06,,Raw,F-OR-A,97.5,100,120,130,140,140,57.5,-62.5,-62.5,,57.5,127.5,137.5,147.5,147.5,345,SBD
DQ,Alexis Jolie,F,1991-04-20,31,Raw,F-OR-A,92,100,110,115,120,120,-55,-55,-55,,,130,140,145,145,,SBD
1,Alefa Sakakibara,F,2001-11-20,20,Wraps,F-JCR-A,78,82.5,102.5,115,122.5,122.5,52.5,-57.5,-57.5,,52.5,117.5,130,137.5,137.5,312.5,SBD
1,Judy Eagles,F,1975-06-11,46,Wraps,F-M2CR-A,69,75,107.5,110,115,115,65,67.5,70,,70,120,130,-135,130,315,SBD
1,Alyssa Anderson,F,1990-02-23,32,Wraps,F-OCR,86.5,90,185,197.5,205,205,100,107.5,115,,115,205,227.5,-230.5,227.5,547.5,SBD
2,Ellisse Cataford,F,1988-02-13,34,Wraps,F-OCR,84.5,90,187.5,-200,-200,187.5,105,110,-117.5,,110,190,197.5,205,205,502.5,SBD
1,Lindsay Rebecca Butler,F,1987-11-08,34,Raw,F-OR-A,118,110+,112.5,115,117.5,117.5,67.5,70,72.5,,72.5,110,115,117.5,117.5,307.5,SBD
1,Alyssa Anderson,F,1990-02-23,32,Raw,F-OCR,86.5,90,,,,,100,107.5,115,,115,205,227.5,-230.5,227.5,342.5,BD
1,Kathleen Rowsell,F,1989-06-19,32,Raw,F-OR,64.5,67.5,,,,,57.5,60,-65,,60,97.5,105,112.5,112.5,172.5,BD
NS,Daisy Perry,F,2002-11-22,19,Raw,F-T3R-A,,,,,,,,,,,,,,,,,B
1,Alyssa Anderson,F,1990-02-23,32,Raw,F-OCR,86.5,90,,,,,100,107.5,115,,115,,,,,115,B
1,Alyssa Anderson,F,1990-02-23,32,Raw,F-OCR,86.5,90,,,,,,,,,,205,227.5,-230.5,227.5,227.5,D
1,Josh Borowski,M,1975-03-31,47,Raw,M-M2R-A,88.5,90,162.5,-175,-175,162.5,100,107.5,-112.5,,107.5,162.5,175,-185,175,445,SBD
1,James Arko,M,1994-01-11,28,Raw,M-OR,90,90,180,190,197.5,197.5,170,177.5,185,,185,225,230,235,235,617.5,SBD
2,Gurj Johal,M,1986-09-13,35,Raw,M-OR,87,90,112.5,120,130,130,75,85,-92.5,,85,130,142.5,152.5,152.5,367.5,SBD
1,Joshua Lamarsh,M,1990-07-30,31,Raw,M-OR,136.5,140,217.5,230,235,235,140,145,150,,150,227.5,240,250,250,635,SBD
1,Royce Snyder,M,2007-01-21,15,Raw,M-T1CR-A,62.5,67.5,130,140,145,145,72.5,77.5,82.5,,82.5,152.5,155,165,165,392.5,SBD
1,Connor Pryschlak,M,2007-03-06,15,Raw,M-T1R-A,81,82.5,125,132.5,137.5,137.5,105,110,115,,115,150,155,160,160,412.5,SBD
NS,Joey Huber,M,2005-04-28,17,Raw,M-T2R-A,,,,,,,,,,,,,,,,,SBD
1,Jakob Chapin,M,2006-02-09,16,Raw,M-T2R-A,87.5,90,130,140,150,150,85,-92.5,92.5,,92.5,157.5,170,180,180,422.5,SBD
NS,Owen Buck,M,2003-10-24,18,Raw,M-T3R,,,,,,,,,,,,,,,,,SBD
1,Owen Buck,M,2003-10-24,18,Raw,M-T3R,78.5,82.5,157.5,170,182.5,182.5,95,-110,110,,110,192.5,-220,220,220,512.5,SBD
NS,Jesse Briault,M,2002-10-10,19,Raw,M-T3R-A,,,,,,,,,,,,,,,,,SBD
1,Bryce Surgenor,M,2003-09-22,,Raw,M-T3R-A,108.5,110,207.5,220,-230,220,147.5,152.5,157.5,,157.5,212.5,227.5,-232.5,227.5,605,SBD
1,Jeremy Reay,M,1980-10-20,41,Wraps,M-M1CR,98.5,100,257.5,-282.5,-282.5,257.5,155,167.5,-182.5,,167.5,265,285.5,-296,285.5,710.5,SBD
1,Mike McKinney,M,1975-02-26,47,Wraps,M-M2CR,119.5,125,-200,-220,220,220,162.5,182.5,187.5,,187.5,245,265,-272.5,265,672.5,SBD
1,Tony Tomra,M,1962-07-29,59,Wraps,M-M4CR,90,90,205,220,235,235,150,162.5,-175,,162.5,200,215,230,230,627.5,SBD
NS,Brent Gardiner,M,1984-12-12,37,Wraps,M-OCR,,,,,,,,,,,,,,,,,SBD
1,Matthew Mitchell,M,1989-02-17,33,Wraps,M-OCR,75,75,170,180,-185,180,107.5,112.5,,,112.5,200,220,-230,220,512.5,SBD
2,Michael Fernandes,M,1995-08-06,26,Wraps,M-OCR,74,75,175,182.5,187.5,187.5,87.5,92.5,-95,,92.5,200,210,-212.5,210,490,SBD
1,Jason Ouellet,M,1977-05-01,45,Wraps,M-OCR,109.5,110,267.5,282.5,292.5,292.5,-177.5,177.5,182.5,,182.5,272.5,292.5,-305,292.5,767.5,SBD
NS,Josh Dingwall,M,1997-04-18,25,Wraps,M-OCR-A,,,,,,,,,,,,,,,,,SBD
1,Michael Adeboye,M,1997-10-12,24,Wraps,M-OCR-A,82,82.5,212.5,227.5,235,235,145,152.5,-157.5,,152.5,250,-267.5,-267.5,250,637.5,SBD
2,Isaiah Jang,M,1997-07-07,24,Wraps,M-OCR-A,81,82.5,192.5,200,210,210,125,-130,-130,,125,237.5,247.5,252.5,252.5,587.5,SBD
1,Errol Luggi,M,1990-09-15,31,Wraps,M-OCR-A,123,125,-220,220,230,230,145,152.5,-160,,152.5,277.5,285,290,290,672.5,SBD
2,Cory Rollings,M,1992-04-06,30,Wraps,M-OCR-A,112,125,207.5,222.5,237.5,237.5,140,150,-157.5,,150,230,247.5,255,255,642.5,SBD
3,Aaron Sampson,M,1995-09-08,26,Wraps,M-OCR-A,113.5,125,190,200,207.5,207.5,137.5,142.5,-145,,142.5,235,255,-262.5,255,605,SBD
1,Gabe Boyd,M,2007-04-10,15,Wraps,M-T1CR,135,140,160,-182.5,185,185,110,117.5,122.5,,122.5,-190,202.5,-210,202.5,510,SBD
1,Spencer Pearen,M,2006-08-28,15,Wraps,M-T1CR-A,59.5,60,90,-102.5,-107.5,90,60,67.5,-72.5,,67.5,87.5,97.5,105,105,262.5,SBD
1,Asa Moran,M,2006-06-17,15,Raw,M-T1R-A,125,125,140,147.5,157.5,157.5,82.5,85,-90,,85,160,172.5,182.5,182.5,425,SBD
DQ,Tavis Harris,M,1980-12-25,41,Multi-ply,M-M1E,121.5,125,340,-365,-365,340,-282.5,-282.5,-282.5,,,285,302.5,307.5,307.5,,SBD
1,Tanner Edwards,M,1993-10-03,28,Multi-ply,M-OE,88.5,90,330,-342.5,342.5,342.5,200,217.5,227.5,,227.5,240,255,-272.5,255,825,SBD
1,Dylan Reid #1,M,1995-06-07,26,Multi-ply,M-OE,103.5,110,320,-340,-340,320,200,215,,,215,302.5,322.5,342.5,342.5,877.5,SBD
NS,Garrett LeRoy,M,,,Raw,M-OR,,,,,,,,,,,,,,,,,BD
1,Jeremy Reay,M,1980-10-20,41,Raw,M-M1CR,98.5,100,,,,,155,167.5,-182.5,,167.5,265,285.5,-296,285.5,453,BD
DQ,Tavis Harris,M,1980-12-25,41,Multi-ply,M-M1E,121.5,125,,,,,-282.5,-282.5,-282.5,,,285,302.5,307.5,307.5,,BD
1,Dylan Reid #1,M,1995-06-07,26,Multi-ply,M-OE,103.5,110,,,,,200,215,,,215,302.5,322.5,342.5,342.5,557.5,BD
1,Conor McLaughlin,M,2001-03-25,21,Raw,M-JR-A,109.5,110,,,,,145,155,-162.5,,155,,,,,155,B
1,Kostas Thanos,M,1971-05-15,50,Raw,M-M3R-A,138,140,,,,,-208,-208,208,-210,208,,,,,208,B
NS,Blair Fisher,M,1960-09-16,61,Multi-ply,M-M5E,,,,,,,,,,,,,,,,,B
1,Jeremy Reay,M,1980-10-20,41,Raw,M-M1CR,98.5,100,,,,,155,167.5,-182.5,,167.5,,,,,167.5,B
1,Jeremy Reay,M,1980-10-20,41,Raw,M-M1CR,98.5,100,,,,,,,,,,265,285.5,-296,285.5,285.5,D
1,Michael Adeboye,M,1997-10-12,24,Raw,M-OCR-A,82,82.5,,,,,,,,,,250,-267.5,-267.5,250,250,D
1,Tavis Harris,M,1980-12-25,41,Multi-ply,M-M1E,121.5,125,,,,,,,,,,285,302.5,307.5,307.5,307.5,D
1,Dylan Reid #1,M,1995-06-07,26,Multi-ply,M-OE,103.5,110,,,,,,,,,,302.5,322.5,342.5,342.5,342.5,D
