Division,WeightClassKg,Place,Name,Team,BodyweightKg,Best3SquatKg,Best3BenchKg,Best3DeadliftKg,TotalKg,Equipment,Event,Sex
Boys,51.71,1,Austen Campbell,Sour Lake Hardin-Jefferson,50.26,129.27,81.65,142.88,353.8,Single-ply,SBD,M
Boys,59.87,1,Joseph Kelley,Cleveland,55.88,161.03,106.59,163.29,430.91,Single-ply,SBD,M
Boys,59.87,2,Chad Currie,Coldspring-Oakhurst,55.97,106.59,74.84,113.4,294.84,Single-ply,SBD,M
Boys,55.79,3,David Kelley,Cleveland,52.71,97.52,58.97,99.79,256.28,Single-ply,SBD,M
Boys,67.13,1,Prosperity Gomez,Coldspring-Oakhurst,60.1,149.69,83.91,151.95,385.55,Single-ply,SBD,M
Boys,67.13,2,Marcus Pham,Hamshire-Fannett,60.1,156.49,77.11,142.88,376.48,Single-ply,SBD,M
Boys,59.87,3,Aaron Hale,Hamshire-Fannett,59.51,136.08,86.18,138.35,360.61,Single-ply,SBD,M
Boys,59.87,DQ,Kevin Sanders #5,Sour Lake Hardin-Jefferson,58.51,138.35,65.77,,,Single-ply,SBD,M
Boys,67.13,1,Drevion Cooper,Coldspring-Oakhurst,66.95,190.51,92.99,183.7,467.2,Single-ply,SBD,M
Boys,67.13,2,Cole Priddy,Sour Lake Hardin-Jefferson,63.78,142.88,74.84,165.56,383.29,Single-ply,SBD,M
Boys,67.13,3,Brennan Drounette,Hamshire-Fannett,61.96,138.35,90.72,129.27,358.34,Single-ply,SBD,M
Boys,67.13,4,Benny Gonzalez,Cleveland,60.51,122.47,70.31,136.08,328.85,Single-ply,SBD,M
Boys,67.13,5,Samuel Martinez,Cleveland,62.14,120.2,65.77,136.08,322.05,Single-ply,SBD,M
Boys,67.13,DQ,Elijah Vick,Coldspring-Oakhurst,65.32,,,,,Single-ply,SBD,M
Boys,74.84,1,Eddie Cross,Coldspring-Oakhurst,70.22,165.56,102.06,192.78,460.4,Single-ply,SBD,M
Boys,74.84,2,Chris Lundy,Coldspring-Oakhurst,74.03,154.22,99.79,165.56,419.57,Single-ply,SBD,M
Boys,74.84,3,Alan Asher,Sour Lake Hardin-Jefferson,68.67,120.2,74.84,142.88,337.93,Single-ply,SBD,M
Boys,74.84,4,Nick Ellisor,Coldspring-Oakhurst,71.94,74.84,92.99,165.56,333.39,Single-ply,SBD,M
Boys,74.84,5,Fabien Salazar,Cleveland,68.58,113.4,63.5,129.27,306.17,Single-ply,SBD,M
Boys,82.1,1,Tanner Jones,Sour Lake Hardin-Jefferson,76.75,206.38,117.93,215.46,539.77,Single-ply,SBD,M
Boys,82.1,2,Josh Bailey,Hamshire-Fannett,81.47,213.19,124.74,199.58,537.51,Single-ply,SBD,M
Boys,82.1,3,Waylon Bogany,Cleveland,79.2,190.51,92.99,226.8,510.29,Single-ply,SBD,M
Boys,82.1,4,Andrew Harrison,Coldspring-Oakhurst,81.69,183.7,111.13,204.12,498.95,Single-ply,SBD,M
Boys,89.81,5,Charles Boutte,Hamshire-Fannett,82.19,222.26,108.86,165.56,496.68,Single-ply,SBD,M
Boys,82.1,6,Garrett Ames,Sour Lake Hardin-Jefferson,81.56,179.17,115.67,188.24,483.08,Single-ply,SBD,M
Boys,89.81,7,Daylon Giddens,Coldspring-Oakhurst,82.19,163.29,111.13,204.12,478.54,Single-ply,SBD,M
Boys,82.1,8,Dylan Reeves #1,Cleveland,78.93,163.29,102.06,163.29,428.64,Single-ply,SBD,M
Boys,82.1,9,Matthew Peddycoat,Hamshire-Fannett,78.29,158.76,99.79,142.88,401.43,Single-ply,SBD,M
Boys,82.1,DQ,Brandon Kelly,Coldspring-Oakhurst,79.11,,,,,Single-ply,SBD,M
Boys,89.81,1,Timoteo Flores,Sour Lake Hardin-Jefferson,89.27,204.12,127.01,213.19,544.31,Single-ply,SBD,M
Boys,99.79,2,Dillon Myers,Hamshire-Fannett,89.99,163.29,83.91,151.95,399.16,Single-ply,SBD,M
Boys,89.81,3,Austin Cartwright,Cleveland,84.64,136.08,74.84,142.88,353.8,Single-ply,SBD,M
Boys,89.81,DQ,Jonathan Rodriguez #5,Cleveland,85.37,151.95,,,,Single-ply,SBD,M
Boys,89.81,DQ,David McNair,Sour Lake Hardin-Jefferson,89.81,,,,,Single-ply,SBD,M
Boys,99.79,1,Casen Carter,Hamshire-Fannett,94.35,215.46,149.69,201.85,566.99,Single-ply,SBD,M
Boys,109.77,2,Carlos Vega-Castro,Cleveland,99.88,174.63,102.06,149.69,426.38,Single-ply,SBD,M
Boys,109.77,1,Jean-Claude Butler,Hamshire-Fannett,109.77,240.4,142.88,226.8,610.08,Single-ply,SBD,M
Boys,124.74,1,Acencion Olalde,Hamshire-Fannett,114.31,215.46,138.35,215.46,569.26,Single-ply,SBD,M
Boys,124.74,2,Roe Wilkins,Sour Lake Hardin-Jefferson,111.13,206.38,117.93,192.78,517.1,Single-ply,SBD,M
Boys,124.74,3,David McCoy,Sour Lake Hardin-Jefferson,122.74,172.37,99.79,188.24,460.4,Single-ply,SBD,M
Boys,124.74+,1,Henry Paredez,Cleveland,129.46,181.44,124.74,158.76,464.93,Single-ply,SBD,M
Boys,124.74+,2,Michael Jauer,Sour Lake Hardin-Jefferson,143.52,158.76,108.86,183.7,451.32,Single-ply,SBD,M
Boys,124.74+,3,Clayton Warren,Coldspring-Oakhurst,125.33,142.88,92.99,127.01,362.87,Single-ply,SBD,M
Boys,124.74+,4,Walter Lopez,Cleveland,149.69,92.99,56.7,142.88,292.57,Single-ply,SBD,M
Boys,124.74+,DQ,Codi Leger,Hamshire-Fannett,136.08,,,,,Single-ply,SBD,M
Junior Varsity,67.13,1,Roberto Martínez,Coldspring-Oakhurst,65.59,102.06,65.77,136.08,303.91,Single-ply,SBD,M
Junior Varsity,67.13,2,Bradley Smith,Coldspring-Oakhurst,66.68,83.91,61.23,102.06,247.21,Single-ply,SBD,M
Junior Varsity,74.84,1,Ryan Copeland,Coldspring-Oakhurst,69.13,111.13,68.04,142.88,322.05,Single-ply,SBD,M
Junior Varsity,74.84,2,Dustin Welch,Coldspring-Oakhurst,70.13,111.13,68.04,136.08,315.25,Single-ply,SBD,M
Junior Varsity,74.84,3,Jason Thomas,Coldspring-Oakhurst,74.75,102.06,61.23,136.08,299.37,Single-ply,SBD,M
Junior Varsity,74.84,DQ,Hunter Hentrich,Sour Lake Hardin-Jefferson,73.48,142.88,72.57,,,Single-ply,SBD,M
Junior Varsity,74.84,DQ,Casey Torres,Coldspring-Oakhurst,70.44,124.74,,,,Single-ply,SBD,M
Junior Varsity,89.81,1,Ian Milam,Coldspring-Oakhurst,85.37,102.06,61.23,124.74,288.03,Single-ply,SBD,M
Junior Varsity,99.79,1,Sam Olivo,Coldspring-Oakhurst,94.57,129.27,102.06,142.88,374.21,Single-ply,SBD,M
Junior Varsity,99.79,2,Dylan Kelly,Coldspring-Oakhurst,94.53,102.06,56.7,102.06,260.82,Single-ply,SBD,M
Junior Varsity,99.79,3,Darren Muirhead,Coldspring-Oakhurst,98.07,92.99,61.23,102.06,256.28,Single-ply,SBD,M
Junior Varsity,109.77,1,Andrew Unger,Coldspring-Oakhurst,102.56,92.99,65.77,124.74,283.5,Single-ply,SBD,M
Junior Varsity,124.74+,1,Matt Coers,Coldspring-Oakhurst,127.6,124.74,83.91,124.74,333.39,Single-ply,SBD,M
